%YAML 1.1
%TAG !u! tag:unity3d.com,2011:
--- !u!114 &11400000
MonoBehaviour:
  m_ObjectHideFlags: 0
  m_CorrespondingSourceObject: {fileID: 0}
  m_PrefabInstance: {fileID: 0}
  m_PrefabAsset: {fileID: 0}
  m_GameObject: {fileID: 0}
  m_Enabled: 1
  m_EditorHideFlags: 0
  m_Script: {fileID: 11500000, guid: 6873e9e989ce17547a5f33ad87926b46, type: 3}
  m_Name: Ingr_Apple_Sliced_Green
  m_EditorClassIdentifier: 
  displayName: Sliced Green Apple
  touristCost: 2
  icon: {fileID: 21300000, guid: 4ab3bdf2c58f9164aac9da445626142e, type: 3}
